(module OffLabel (layer F.Cu) (tedit 5E342DBF)
  (fp_text reference G*** (at 0 0) (layer F.SilkS) hide
    (effects (font (size 1.524 1.524) (thickness 0.3)))
  )
  (fp_text value LOGO (at 0.75 0) (layer F.SilkS) hide
    (effects (font (size 1.524 1.524) (thickness 0.3)))
  )
  (fp_poly (pts (xy 0.883642 -1.685647) (xy 1.375129 -1.490189) (xy 1.411112 -1.411111) (xy 1.109211 -1.145919)
    (xy 0.529167 -1.058333) (xy -0.133812 -0.937573) (xy -0.352777 -0.705555) (xy -0.050877 -0.440364)
    (xy 0.529167 -0.352777) (xy 1.192146 -0.232017) (xy 1.411112 0) (xy 1.109211 0.265192)
    (xy 0.529167 0.352778) (xy -0.142173 0.498484) (xy -0.349053 1.072194) (xy -0.352777 1.234723)
    (xy -0.53678 1.94405) (xy -0.881944 2.116667) (xy -1.201063 1.942473) (xy -1.365359 1.331237)
    (xy -1.411111 0.176389) (xy -1.411111 -1.763889) (xy 0 -1.763889) (xy 0.883642 -1.685647)) (layer F.SilkS) (width 0.01))
  (fp_poly (pts (xy 4.938889 3.880556) (xy -4.938888 3.880556) (xy -4.93776 0.6604) (xy -4.55168 0.67056)
    (xy -3.8862 0.67564) (xy -3.79476 1.016) (xy -3.67284 1.23952) (xy -3.4798 1.3716)
    (xy -3.218505 1.394294) (xy -2.99212 1.29032) (xy -2.874653 1.124869) (xy -2.756907 0.79375)
    (xy -2.690732 -0.081384) (xy -2.876607 -0.747386) (xy -3.1496 -0.9398) (xy -3.50012 -0.93472)
    (xy -3.65252 -0.79248) (xy -3.772128 -0.554698) (xy -3.822196 -0.214743) (xy -3.87604 0.69088)
    (xy -4.55168 0.67056) (xy -4.57708 -0.59944) (xy -4.56184 0.67056) (xy -4.93776 0.6604)
    (xy -4.938888 -3.175) (xy -4.586111 -3.175) (xy -4.586111 -2.286334) (xy -4.61264 -0.28448)
    (xy -4.576513 -0.6542) (xy -4.4704 -0.97282) (xy -4.24942 -1.33731) (xy -4.02082 -1.52781)
    (xy -3.699585 -1.620172) (xy -2.93624 -1.6256) (xy -2.56032 -1.46812) (xy -2.07772 -0.99568)
    (xy -1.91516 -0.635) (xy -1.81356 -0.03048) (xy -1.79324 0.4318) (xy -1.994861 1.321723)
    (xy -2.645752 1.943785) (xy -3.653525 1.984071) (xy -3.699585 1.972951) (xy -4.28752 1.56972)
    (xy -4.41706 1.22428) (xy -4.50596 0.9652) (xy -4.5466 0.79248) (xy -4.570316 2.273494)
    (xy -4.586111 2.639112) (xy -4.586111 3.527778) (xy 4.586112 3.527778) (xy 4.586112 1.940278)
    (xy 4.600829 0.898219) (xy 4.60756 0.3302) (xy 4.60756 -0.19304) (xy 3.704167 0.352778)
    (xy 3.032827 0.498484) (xy 2.825947 1.072194) (xy 2.822223 1.234723) (xy 2.63822 1.94405)
    (xy 2.293056 2.116667) (xy 1.973937 1.942473) (xy 1.809641 1.331237) (xy 1.763889 0.176389)
    (xy 1.763889 -0.705555) (xy 2.822223 -0.705555) (xy 3.124123 -0.440364) (xy 3.704167 -0.352777)
    (xy 4.59232 -0.2286) (xy 4.586112 -0.705555) (xy 4.5 -1.5) (xy 3.704167 -1.058333)
    (xy 3.041188 -0.937573) (xy 2.822223 -0.705555) (xy 1.763889 -0.705555) (xy 1.763889 -1.763889)
    (xy 3.175 -1.763889) (xy 4.5 -1.5) (xy 4.506219 -2.062199) (xy 4.586112 -2.469444)
    (xy 4.547214 -2.757483) (xy 4.355561 -2.954278) (xy 3.898713 -3.077127) (xy 3.064232 -3.143328)
    (xy 1.739678 -3.170179) (xy 0 -3.175) (xy -4.586111 -3.175) (xy -4.938888 -3.175)
    (xy -4.938888 -3.527777) (xy 4.938889 -3.527777) (xy 4.938889 3.880556)) (layer F.SilkS) (width 0.01))
)
