(module swamp_logo (layer F.Cu) (tedit 0)
  (fp_text reference G*** (at 0 0) (layer F.SilkS) hide
    (effects (font (size 1.524 1.524) (thickness 0.3)))
  )
  (fp_text value LOGO (at 0.75 0) (layer F.SilkS) hide
    (effects (font (size 1.524 1.524) (thickness 0.3)))
  )
  (fp_poly (pts (xy 0.408976 -2.316643) (xy 0.814446 -1.81251) (xy 1.059825 -1.334564) (xy 1.144455 -0.887486)
    (xy 1.067679 -0.475955) (xy 0.828837 -0.104652) (xy 0.733341 -0.009004) (xy 0.496961 0.126348)
    (xy 0.174005 0.214678) (xy -0.158328 0.242289) (xy -0.421822 0.195922) (xy -0.54351 0.127206)
    (xy -0.671167 0.008318) (xy -0.844013 -0.19935) (xy -0.911972 -0.286585) (xy -1.07387 -0.628412)
    (xy -1.089933 -1.030155) (xy -0.964794 -1.474058) (xy -0.703088 -1.942366) (xy -0.373503 -2.349825)
    (xy -0.000426 -2.751667) (xy 0.408976 -2.316643)) (layer F.SilkS) (width 0.01))
  (fp_poly (pts (xy 0.321553 0.536232) (xy 0.325733 0.536417) (xy 0.817169 0.570189) (xy 1.147588 0.620414)
    (xy 1.314734 0.686446) (xy 1.316355 0.767638) (xy 1.266611 0.806427) (xy 1.134731 0.837596)
    (xy 0.875101 0.863471) (xy 0.529251 0.883033) (xy 0.13871 0.895257) (xy -0.254991 0.899123)
    (xy -0.610324 0.893609) (xy -0.885759 0.877693) (xy -0.998165 0.862157) (xy -1.187603 0.800614)
    (xy -1.27933 0.727354) (xy -1.280773 0.719667) (xy -1.204531 0.641417) (xy -0.982921 0.581295)
    (xy -0.639199 0.541956) (xy -0.196623 0.52605) (xy 0.321553 0.536232)) (layer F.SilkS) (width 0.01))
  (fp_poly (pts (xy 2.687767 1.322471) (xy 2.84658 1.479869) (xy 2.878667 1.651) (xy 2.810069 1.882328)
    (xy 2.631282 2.015585) (xy 2.523067 2.032) (xy 2.395339 2.089934) (xy 2.370667 2.159)
    (xy 2.302894 2.271248) (xy 2.243667 2.286) (xy 2.169923 2.246986) (xy 2.130331 2.108686)
    (xy 2.116917 1.839208) (xy 2.116667 1.778) (xy 2.116667 1.651) (xy 2.370667 1.651)
    (xy 2.429449 1.74611) (xy 2.548548 1.755408) (xy 2.642092 1.678539) (xy 2.650305 1.652159)
    (xy 2.595674 1.568534) (xy 2.518833 1.540118) (xy 2.39292 1.57314) (xy 2.370667 1.651)
    (xy 2.116667 1.651) (xy 2.116667 1.27) (xy 2.396066 1.27) (xy 2.687767 1.322471)) (layer F.SilkS) (width 0.01))
  (fp_poly (pts (xy 1.740672 1.346958) (xy 1.769104 1.547197) (xy 1.778 1.784208) (xy 1.771732 2.069233)
    (xy 1.745794 2.220184) (xy 1.68948 2.272081) (xy 1.629833 2.268954) (xy 1.518175 2.183895)
    (xy 1.511069 2.033877) (xy 1.518768 1.894346) (xy 1.462011 1.896661) (xy 1.405236 1.940498)
    (xy 1.267127 2.009276) (xy 1.143 1.947333) (xy 1.050986 1.895949) (xy 1.018509 1.975943)
    (xy 1.016 2.063966) (xy 0.97359 2.241947) (xy 0.889 2.286) (xy 0.815257 2.246986)
    (xy 0.775664 2.108686) (xy 0.76225 1.839208) (xy 0.762 1.778) (xy 0.769026 1.510038)
    (xy 0.78729 1.32596) (xy 0.808394 1.27) (xy 0.888667 1.32783) (xy 1.026563 1.470224)
    (xy 1.054887 1.502628) (xy 1.254986 1.735257) (xy 1.437971 1.502628) (xy 1.581281 1.346444)
    (xy 1.690508 1.271212) (xy 1.699478 1.27) (xy 1.740672 1.346958)) (layer F.SilkS) (width 0.01))
  (fp_poly (pts (xy 0.078467 1.338953) (xy 0.181326 1.512143) (xy 0.301249 1.739063) (xy 0.412385 1.969207)
    (xy 0.488882 2.152068) (xy 0.508 2.226325) (xy 0.431164 2.2371) (xy 0.231967 2.244417)
    (xy 0.014862 2.246489) (xy -0.478276 2.246489) (xy -0.301758 1.837385) (xy -0.127701 1.837385)
    (xy -0.116417 1.879791) (xy -0.004767 1.946216) (xy 0.120413 1.916073) (xy 0.169333 1.82533)
    (xy 0.1179 1.682447) (xy 0.007398 1.634559) (xy -0.088546 1.69961) (xy -0.127701 1.837385)
    (xy -0.301758 1.837385) (xy -0.26761 1.758244) (xy -0.147021 1.504429) (xy -0.041984 1.32788)
    (xy 0.018521 1.27) (xy 0.078467 1.338953)) (layer F.SilkS) (width 0.01))
  (fp_poly (pts (xy -0.631393 1.282583) (xy -0.602472 1.342926) (xy -0.632657 1.48492) (xy -0.724123 1.742453)
    (xy -0.752348 1.817093) (xy -0.882592 2.112978) (xy -0.990806 2.246474) (xy -1.084486 2.221931)
    (xy -1.166428 2.0574) (xy -1.249123 1.820333) (xy -1.311073 2.053167) (xy -1.391732 2.241827)
    (xy -1.48821 2.261986) (xy -1.60012 2.113697) (xy -1.649572 2.006145) (xy -1.788373 1.636883)
    (xy -1.838725 1.400229) (xy -1.802072 1.285292) (xy -1.747266 1.27) (xy -1.629737 1.346534)
    (xy -1.537462 1.544341) (xy -1.537232 1.545167) (xy -1.474419 1.709188) (xy -1.42377 1.711548)
    (xy -1.415934 1.693333) (xy -1.321745 1.431018) (xy -1.262972 1.312667) (xy -1.214718 1.32402)
    (xy -1.152086 1.450813) (xy -1.12034 1.524) (xy -0.991029 1.820333) (xy -0.916427 1.545167)
    (xy -0.832479 1.358077) (xy -0.727537 1.270882) (xy -0.717246 1.27) (xy -0.631393 1.282583)) (layer F.SilkS) (width 0.01))
  (fp_poly (pts (xy -2.298724 1.322557) (xy -2.150452 1.448056) (xy -2.116667 1.54766) (xy -2.187808 1.583586)
    (xy -2.360081 1.568594) (xy -2.370667 1.566333) (xy -2.549956 1.549694) (xy -2.624621 1.589744)
    (xy -2.624667 1.591356) (xy -2.551366 1.662143) (xy -2.374064 1.722238) (xy -2.364949 1.72411)
    (xy -2.184267 1.782708) (xy -2.126644 1.893261) (xy -2.132116 2.00986) (xy -2.183423 2.181712)
    (xy -2.320355 2.25015) (xy -2.413 2.260117) (xy -2.631232 2.25798) (xy -2.772833 2.231894)
    (xy -2.870945 2.137816) (xy -2.872813 2.028952) (xy -2.790496 1.97509) (xy -2.7305 1.986881)
    (xy -2.553392 2.049598) (xy -2.479687 2.04642) (xy -2.458803 1.989667) (xy -2.51907 1.907925)
    (xy -2.640392 1.858954) (xy -2.811726 1.757405) (xy -2.865819 1.597163) (xy -2.814455 1.429201)
    (xy -2.669419 1.304491) (xy -2.504233 1.27) (xy -2.298724 1.322557)) (layer F.SilkS) (width 0.01))
  (fp_poly (pts (xy 4.995333 4.995333) (xy -4.995333 4.995333) (xy -4.995333 0.880597) (xy -3.44731 0.880597)
    (xy -3.433916 1.123848) (xy -3.273712 1.725484) (xy -2.972173 2.256641) (xy -2.545608 2.708671)
    (xy -2.010322 3.072929) (xy -1.382623 3.340767) (xy -0.678818 3.503539) (xy 0.084787 3.552597)
    (xy 0.891885 3.479295) (xy 0.979283 3.464003) (xy 1.657885 3.258389) (xy 2.247753 2.910519)
    (xy 2.737542 2.428751) (xy 3.061609 1.929982) (xy 3.200984 1.527102) (xy 3.265788 1.036336)
    (xy 3.256164 0.52136) (xy 3.172253 0.045846) (xy 3.056759 -0.254) (xy 2.719666 -0.794807)
    (xy 2.264059 -1.384906) (xy 1.719513 -1.991478) (xy 1.115606 -2.581702) (xy 0.481915 -3.122758)
    (xy 0.445946 -3.151096) (xy -0.063397 -3.550525) (xy -0.857315 -2.887854) (xy -1.370236 -2.43501)
    (xy -1.875281 -1.944265) (xy -2.339188 -1.450819) (xy -2.72869 -0.989875) (xy -2.986138 -0.635)
    (xy -3.227152 -0.159916) (xy -3.386487 0.367323) (xy -3.44731 0.880597) (xy -4.995333 0.880597)
    (xy -4.995333 -4.995333) (xy 4.995333 -4.995333) (xy 4.995333 4.995333)) (layer F.SilkS) (width 0.01))
)
